\relax 
\@writefile{toc}{\contentsline {section}{\numberline {1}Aufgabenstellung und Zielsetzung}{2}}
\@writefile{toc}{\contentsline {section}{\numberline {2}Versuchsaufbau}{3}}
\newlabel{aufbau}{{2}{3}}
\@writefile{lof}{\contentsline {figure}{\numberline {1}{\ignorespaces Beispiel der Abbildung des PID-Regler}}{3}}
\newlabel{Abb1}{{1}{3}}
\@writefile{toc}{\contentsline {section}{\numberline {3}Modellierung}{4}}
\newlabel{modellierung}{{3}{4}}
\@writefile{toc}{\contentsline {subsection}{\numberline {3.1}Modellierung der Zyklischen Abfolge}{4}}
\newlabel{zyk}{{3.1}{4}}
\@writefile{lof}{\contentsline {figure}{\numberline {2}{\ignorespaces Modellierte Zustandstabelle f\"ur zyklischen Ablauf}}{4}}
\newlabel{zustandstabelle}{{2}{4}}
\@writefile{toc}{\contentsline {subsection}{\numberline {3.2}Ermitteln der Zust\"andsbitfolgen durch die Schieberegister}{4}}
\@writefile{lot}{\contentsline {table}{\numberline {1}{\ignorespaces Eingabemaske f\"ur die Zust\"ande der LEDs}}{5}}
\@writefile{toc}{\contentsline {subsection}{\numberline {3.3}Zustandswechsel mit Taster}{5}}
\newlabel{ztabelle}{{3.3}{5}}
\@writefile{lof}{\contentsline {figure}{\numberline {3}{\ignorespaces Modellierte Zustandstabelle f\"ur zyklischen Ablauf}}{5}}
\newlabel{zustandsdiagramm}{{3}{5}}
\@writefile{toc}{\contentsline {section}{\numberline {4}Implementierung}{6}}
\@writefile{toc}{\contentsline {subsection}{\numberline {4.1}Pin-Belegung der Komponenten}{6}}
\newlabel{pinbelegung}{{4.1}{6}}
\@writefile{lot}{\contentsline {table}{\numberline {2}{\ignorespaces PIN-Belegung der LEDs}}{6}}
\@writefile{lot}{\contentsline {table}{\numberline {3}{\ignorespaces PIN-Belegung der LEDs}}{6}}
\@writefile{toc}{\contentsline {subsection}{\numberline {4.2}Die Deltatabelle f\"ur den Zustandswechsel}{6}}
\@writefile{lot}{\contentsline {table}{\numberline {4}{\ignorespaces Deltatabelle}}{7}}
\@writefile{toc}{\contentsline {subsection}{\numberline {4.3}Die Initialisierung}{7}}
\@writefile{lof}{\contentsline {figure}{\numberline {4}{\ignorespaces Quellcode zum Initialisieren der Pins und Tasks}}{7}}
\@writefile{toc}{\contentsline {subsection}{\numberline {4.4}Der zyklische Ablauf}{8}}
\@writefile{lof}{\contentsline {figure}{\numberline {5}{\ignorespaces Quellcode f\"ur Aufruf der Funktion f\"ur zyklischen Ablauf}}{8}}
\@writefile{lof}{\contentsline {figure}{\numberline {6}{\ignorespaces Quellcode f\"ur die Funktion f\"ur den zyklischen Ablauf}}{9}}
\@writefile{toc}{\contentsline {subsection}{\numberline {4.5}Der Zustandswechsel nach einem Tastendruck}{10}}
\@writefile{lof}{\contentsline {figure}{\numberline {7}{\ignorespaces Quellcode zur Berechnung der Regelung}}{10}}
\@writefile{toc}{\contentsline {section}{\numberline {A}Quellcode}{11}}
\@writefile{toc}{\contentsline {section}{\numberline {B}Schieberegister}{15}}
\@writefile{lof}{\contentsline {figure}{\numberline {8}{\ignorespaces Schieberegister f\"ur die Ampeln}}{15}}
\newlabel{Abb1}{{8}{15}}
\bibdata{bibfile}
\bibstyle{alphadin}
\@writefile{lof}{\contentsline {figure}{\numberline {9}{\ignorespaces Schieberegister f\"ur die Taster}}{16}}
\newlabel{Abb1}{{9}{16}}
